<?xml version="1.0" encoding="utf-8"?>
<!-- Generator: Adobe Illustrator 16.0.0, SVG Export Plug-In . SVG Version: 6.00 Build 0)  -->
<!DOCTYPE svg PUBLIC "-//W3C//DTD SVG 1.1//EN" "http://www.w3.org/Graphics/SVG/1.1/DTD/svg11.dtd">
<svg version="1.1" id="Layer_1" xmlns="http://www.w3.org/2000/svg" xmlns:xlink="http://www.w3.org/1999/xlink" x="0px" y="0px"
	 width="100px" height="100px" viewBox="-21 -30 100 100" enable-background="new -21 -30 100 100" xml:space="preserve">
<title>Cheese_icons-04</title>
<desc>Created with Sketch.</desc>
<g id="Новая-эстетика">
	<g id="Рецепты" transform="translate(-221.000000, -343.000000)">
		<g id="Cheese_icons-04" transform="translate(221.000000, 343.000000)">
			<path id="Shape" fill="#3A3D70" d="M-14.807,3.959C0.506-8.97,27.558,15.25,61.417-10.694c3.829-2.931,9.103,0.518,9.103,0.518
				s4.338,1.551,6.719,7.843c2.554,6.723,1.957,13.618,0.512,17.583c-5.359,12.325-15.908,19.91-25.352,28.097
				c-2.21,1.639-4.508,3.191-6.806,4.568c-4.763,2.673-9.784,4.742-14.887,5.862c-2.552,0.516-5.19,0.862-7.741,0.949
				c-15.312,0.43-33.943-8.275-40.494-19.653C-24.334,23.351-19.911,8.269-14.807,3.959z"/>
			
				<linearGradient id="Shape_3_" gradientUnits="userSpaceOnUse" x1="-64.3823" y1="106.4043" x2="-64.3823" y2="108.1483" gradientTransform="matrix(49.2189 0 0 -29.3333 3197.8101 3161.5415)">
				<stop  offset="0" style="stop-color:#BAD3E8"/>
				<stop  offset="0.3107" style="stop-color:#B8D0E6"/>
				<stop  offset="0.4488" style="stop-color:#B1C7DF"/>
				<stop  offset="0.5527" style="stop-color:#A6BAD4"/>
				<stop  offset="0.6396" style="stop-color:#97A9C6"/>
				<stop  offset="0.7159" style="stop-color:#8794B5"/>
				<stop  offset="0.7846" style="stop-color:#757DA2"/>
				<stop  offset="0.8477" style="stop-color:#60668F"/>
				<stop  offset="0.9048" style="stop-color:#4A4E7D"/>
				<stop  offset="0.9409" style="stop-color:#3A3D70"/>
			</linearGradient>
			<path id="Shape_1_" fill="url(#Shape_3_)" d="M71.284,4.562C67.2,13.958,59.631,20.25,51.719,26.972
				c-1.191,1.036-2.468,2.069-3.743,3.19c-1.957,1.551-3.999,2.843-6.126,4.05c-4.423,2.501-8.847,4.31-13.355,5.259
				c-2.297,0.517-4.594,0.775-6.891,0.86c-0.34,0-0.681,0-1.021,0c-7.742,0-15.908-2.671-22.373-7.326
				c-6.806-4.827-11.144-11.462-12.165-18.531c0-3.275,0.765-5.947,2.126-8.447c1.786-2.154,3.914-3.792,6.295-5.085
				c2.126-1.121,4.594-1.982,7.401-2.585C3.654-1.816,5.44-1.902,7.226-2.075c16.929-1.379,32.922-2.585,50.278-7.929l0.17-0.086
				l0.086-0.086c1.189-0.432,2.381-0.69,3.572-0.69c3.231,0,6.464,1.81,8.506,4.741C71.965-2.937,72.562,0.942,71.284,4.562z"/>
			<path id="Shape_2_" fill="#FFFFFF" d="M61.332-14.486c-1.617,0-3.233,0.258-4.851,0.948C37.597-7.677,20.412-6.815,1.442-5.264
				c-2.978,0.604-5.87,1.552-8.592,3.017c-2.722,1.465-5.274,3.448-7.571,6.206c-1.701,2.93-2.722,6.464-2.722,10.774
				c2.467,17.756,21.353,29.218,38.197,29.218c0.34,0,0.766,0,1.105,0c2.553-0.085,5.02-0.344,7.486-0.947
				c4.934-1.033,9.783-3.017,14.377-5.689c2.297-1.292,4.51-2.758,6.635-4.395c9.104-7.844,19.311-15.17,24.416-27.065
				C78.261-4.229,70.604-14.486,61.332-14.486z M57.504-10.004l0.17-0.086l0.086-0.086c1.189-0.432,2.381-0.69,3.572-0.69
				c1.616,0,3.231,0.431,4.763,1.293c-2.128,2.155-8.335,8.533-10.207,9.826c-0.426,0.258-0.852,0.518-1.278,0.775
				c-3.146-1.465-7.654-1.896-10.036,0.604c-0.852,0.863-1.786,1.465-2.639,1.896c-1.445-0.344-3.657-1.034-7.997-2.758
				c-3.487-1.379-5.273-1.552-8.25-3.103c-0.851-0.432-1.532-0.862-1.957-1.207C34.79-4.661,45.849-6.384,57.504-10.004z
				 M43.041,20.766c-0.254,2.932-1.616,9.567-1.957,11.292c-0.168,0.775-0.168,1.811-0.168,2.673
				c-4.084,2.239-8.254,3.878-12.422,4.74c-2.297,0.517-4.594,0.775-6.891,0.86c-0.34,0-0.681,0-1.021,0
				c-7.742,0-15.908-2.671-22.373-7.326c-6.806-4.827-11.144-11.462-12.165-18.531c0-3.275,0.765-5.947,2.126-8.447
				c1.786-2.154,3.914-3.792,6.295-5.085c2.126-1.121,4.594-1.982,7.401-2.585C3.654-1.816,5.44-1.902,7.226-2.075
				c2.467-0.172,4.85-0.344,7.231-0.603c0.681,0.431,1.446,0.862,2.211,1.121c1.532,0.431,7.317,2.155,10.124,3.707
				c2.808,1.551,7.145,2.068,10.124,3.103c0.766,0.258,1.701,0.517,2.721,0.689c0,0.258,0,0.603,0.085,0.948
				c0.426,2.327,2.383,4.913,5.02,5.43v0.086C44.659,14.991,43.38,17.146,43.041,20.766z M71.284,4.562
				C67.2,13.958,59.631,20.25,51.719,26.972c-1.191,1.036-2.468,2.069-3.743,3.19c-0.426,0.345-0.936,0.688-1.362,1.033
				c-0.339-1.465-1.361-6.119-0.68-10.43c0.512-3.533,1.53-6.636,2.042-8.963c3.999-1.293,10.803-4.396,10.038-7.412
				c-0.171-0.69-0.595-1.293-1.277-1.896c0.938-0.432,1.957-1.035,2.725-1.638c2.381-1.896,5.868-4.224,7.23-4.654
				c1.019-0.345,2.297-1.552,2.976-2.414c0.085,0.086,0.085,0.172,0.171,0.172C71.965-2.937,72.562,0.942,71.284,4.562z"/>
			
				<ellipse id="Oval" transform="matrix(0.3696 0.9292 -0.9292 0.3696 35.8511 -41.7098)" fill="#FDD91E" cx="48.664" cy="5.566" rx="2.5" ry="5.104"/>
		</g>
	</g>
</g>
</svg>
