<svg width="32" height="26" viewBox="0 0 32 26" fill="none" xmlns="http://www.w3.org/2000/svg">
<rect x="-0.5" y="0.5" width="27" height="21" transform="matrix(-1 0 0 1 29 4)" stroke-linecap="round" stroke-linejoin="round"/>
<path d="M28.6267 5L16 17.3019L3.3733 5L28.6267 5Z"/>
</svg>
