{
	"page": {
		"header": "Заказ оформлен",
		"text": "Первое издание «Москва-Петушки», благо было в одном экземпляре, быстро разошлось. Я получил с тех пор много нареканий за главу «Серп и молот — Карачарово», и совершенно напрасно."
	},
	"head": {
		"topMenu": [
			{
				"title": "Вопросы и ответы"
			},
			{
				"title": "Оплата и доставка"
			},
			{
				"title": "Оферта"
			},
			{
				"title": "Адрес и контакты"
			},
			{
				"title": "Юрлицам"
			}
		],
		"menu": [
			{
				"title": "Каталог"
			},
			{
				"title": "Акции",
				"active": true
			},
			{
				"title": "Рецепты"
			},
			{
				"title": "Блог"
			}
		],
		"email": "shop@kozi.ru",
		"phone": "8 800 200-83-62",
		"search": {
			"field": {
				"placeholder": "Найти и съесть",
				"type": "text",
				"icon": "search",
				"color": "white",
				"name": "search"
			},
			"button": {
				"text": "Показать все 5",
				"href": "#"
			},
			"list": [
				{
					"img": "item-1.jpg",
					"title": "Творог ванильный пломбир 4%",
					"subtitle": "Ультрафильтрационный, из коровьего молока",
					"price": 95,
					"weight": 180
				},
				{
					"img": "item-2.jpg",
					"title": "Творог 5%",
					"subtitle": "Из коровьего молока",
					"price": 95,
					"weight": 180
				},
				{
					"img": "item-3.jpg",
					"title": "Kozilakt 4%",
					"subtitle": "Творог из козьего молока для детского питания",
					"price": 400,
					"weight": 400
				}
			]
		},
		"cart": {
			"button": {
				"text": "Корзина",
				"href": "cart.html"
			},
			"amount": {
				"num": 4,
				"link": "cart.html"
			},
			"orderList": [
				{
					"title": "Творог ванильный пломбир 4%",
					"price": 95
				},
				{
					"title": "Kozilakt 4%",
					"price": 200
				},
				{
					"title": "Сернурская Рикотта Карамель тоффи ×10",
					"price": 850
				}
			]
		},
		"private": {
			"text": "Константин"
		}
	},
	"footer": {
		"mainMenu": [
			{
				"title": "Каталог"
			},
			{
				"title": "Акции"
			},
			{
				"title": "Рецепты"
			},
			{
				"title": "Блог"
			}
		],
		"slaveMenu": [
			{
				"title": "Оферта"
			},
			{
				"title": "Оплата и доставка"
			},
			{
				"title": "Юрлицам"
			},
			{
				"title": "Адрес и реквизиты"
			}
		]
	}
}